jaydeblogs - the eras touR
…
# in case need to do a manual entry 
#track_plays[which(track_plays$track_id=="0GKDhq6ZbmSbRHd3eyGlB7"), 3] <- 229475778

I then write this file out to a csv to store it after each day’s API access is maxed so I can read it in and add more data the next day (so long as I remember to do so). At this rate, it will take probably a month (if I am diligent and make minimal errors) to get all of the stream data in.

track_plays

# A tibble: 465 × 4
   track_id               track_name                               plays date_…¹
   <chr>                  <chr>                                    <dbl> <chr>  
 1 24emu3sabKISjRkrys28jq Lavender Haze                           4.40e8 Thu Ju…
 2 6qxvy9Pe4RJIq5JBVbbwbS Maroon                                 NA      Thu Ju…
 3 5qIHFdkW6phMsTZlN2g8Lc Anti-Hero                              NA      Thu Ju…
 4 7GA86Uo2jYbj8vIXe2nyWd Snow On The Beach (feat. Lana Del Rey)  3.01e8 Thu Ju…
 5 6PQOU00xWNrGwCZzboriXy You're On Your Own, Kid                NA      Thu Ju…
 6 4eKMqf9ZMSclDX7V9Ptg7x Midnight Rain                          NA      Thu Ju…
 7 7oomkQSYf1ia2VnVEWfFIU Question...?                           NA      Thu Ju…
 8 0GKDhq6ZbmSbRHd3eyGlB7 Vigilante Shit                         NA      Thu Ju…
 9 0VpF6RLdCfPIeYRwMu4tZK Bejeweled                              NA      Thu Ju…
10 4bBDkw2KBMX0tcgAaXC83Q Labyrinth                              NA      Thu Ju…
# … with 455 more rows, and abbreviated variable name ¹​date_retrieved
…
